<?xml version="1.0" encoding="UTF-8" standalone="no"?>
<?xml-stylesheet href="../style.css"?>

<svg version="1.1"
     baseProfile="full"
     width="900" height="100"
     xmlns="http://www.w3.org/2000/svg">

  <rect x="60" y="0" width="10" height="100" class="outfield" />
  <g transform="translate(15, 0)">
    <g class="nrse_field slow">
      <use href="./common.svg#arrow" />
    </g>
  </g>

  <rect x="360" y="0" width="10" height="100" class="outfield" />
  <g transform="translate(315, 0)">
    <g class="nrse_field">
      <use href="./common.svg#arrow" />
    </g>
  </g>

  <g class="mieze_sample_pos slow">
    <g class="mieze_rot slow">
      <use href="./common.svg#neutron" />
    </g>
  </g>

  <g class="mieze_sample_pos">
    <g class="mieze_rot">
      <use href="./common.svg#neutron" />
    </g>
  </g>

  <use href="./common.svg#sample" x="400"/>

  <g transform="translate(615,0)">
    <g class="nrse_field">
      <use href="./common.svg#neutron" />
    </g>
  </g>
</svg>
