<?xml version="1.0" encoding="UTF-8" standalone="no"?>
<?xml-stylesheet href="../style.css"?>

<svg version="1.1"
     baseProfile="full"
     width="900" height="100"
     xmlns="http://www.w3.org/2000/svg">

  <use href="./common.svg#sample" x="400" y="0"/>

  <use href="./common.svg#background" />
  <g class="nse_sample_pos">
    <g class="nse_sample_rot">
      <use href="./common.svg#neutron" />
    </g>
  </g>
</svg>
