<?xml version="1.0" encoding="UTF-8" standalone="no"?>
<?xml-stylesheet href="../style.css"?>

<svg version="1.1"
     baseProfile="full"
     width="900" height="100"
     xmlns="http://www.w3.org/2000/svg">

  <polygon points="50,0 150,100 350,100, 250,0" class="outfield" />

  <polygon points="550,0 650,100 850,100, 750,0" class="infield" />

  <use href="./common.svg#sample" x="400" y="0" />

  <g class="nss">
    <g class="sesans_bottom_scatter">
      <use href="./common.svg#neutron" />
    </g>
  </g>
</svg>
