<?xml version="1.0" encoding="UTF-8"?>
<svg xmlns="http://www.w3.org/2000/svg" xmlns:xlink="http://www.w3.org/1999/xlink" width="359pt" height="219pt" viewBox="0 0 359 219" version="1.1">
<defs>
<g>
<symbol overflow="visible" id="glyph0-0">
<path style="stroke:none;" d="M 1.25 0 L 1.25 -6.25 L 6.25 -6.25 L 6.25 0 Z M 1.40625 -0.15625 L 6.09375 -0.15625 L 6.09375 -6.09375 L 1.40625 -6.09375 Z "/>
</symbol>
<symbol overflow="visible" id="glyph0-1">
<path style="stroke:none;" d="M 0.414063 -3.53125 C 0.410156 -4.375 0.496094 -5.054688 0.675781 -5.574219 C 0.847656 -6.085938 1.109375 -6.484375 1.453125 -6.765625 C 1.796875 -7.042969 2.226563 -7.183594 2.75 -7.1875 C 3.128906 -7.183594 3.464844 -7.105469 3.757813 -6.953125 C 4.046875 -6.796875 4.289063 -6.574219 4.476563 -6.285156 C 4.664063 -5.992188 4.8125 -5.636719 4.921875 -5.222656 C 5.027344 -4.800781 5.078125 -4.238281 5.082031 -3.53125 C 5.078125 -2.6875 4.992188 -2.007813 4.824219 -1.496094 C 4.648438 -0.976563 4.390625 -0.578125 4.050781 -0.300781 C 3.703125 -0.0195313 3.269531 0.117188 2.75 0.121094 C 2.054688 0.117188 1.515625 -0.128906 1.125 -0.621094 C 0.648438 -1.214844 0.410156 -2.183594 0.414063 -3.53125 Z M 1.320313 -3.53125 C 1.316406 -2.351563 1.453125 -1.570313 1.730469 -1.183594 C 2.003906 -0.792969 2.34375 -0.597656 2.75 -0.601563 C 3.148438 -0.597656 3.488281 -0.792969 3.765625 -1.1875 C 4.039063 -1.574219 4.175781 -2.355469 4.179688 -3.53125 C 4.175781 -4.707031 4.039063 -5.488281 3.765625 -5.878906 C 3.488281 -6.261719 3.144531 -6.457031 2.738281 -6.460938 C 2.332031 -6.457031 2.011719 -6.285156 1.773438 -5.945313 C 1.46875 -5.507813 1.316406 -4.703125 1.320313 -3.53125 Z "/>
</symbol>
<symbol overflow="visible" id="glyph0-2">
<path style="stroke:none;" d="M 0.90625 0 L 0.90625 -1 L 1.910156 -1 L 1.910156 0 Z "/>
</symbol>
<symbol overflow="visible" id="glyph0-3">
<path style="stroke:none;" d="M 5.035156 -0.84375 L 5.035156 0 L 0.304688 0 C 0.296875 -0.210938 0.328125 -0.414063 0.40625 -0.609375 C 0.523438 -0.929688 0.71875 -1.246094 0.984375 -1.5625 C 1.25 -1.871094 1.632813 -2.234375 2.132813 -2.648438 C 2.910156 -3.28125 3.433594 -3.785156 3.710938 -4.160156 C 3.980469 -4.535156 4.117188 -4.886719 4.121094 -5.21875 C 4.117188 -5.566406 3.992188 -5.859375 3.746094 -6.101563 C 3.496094 -6.335938 3.171875 -6.457031 2.773438 -6.460938 C 2.347656 -6.457031 2.011719 -6.328125 1.757813 -6.078125 C 1.5 -5.820313 1.371094 -5.46875 1.371094 -5.023438 L 0.46875 -5.117188 C 0.53125 -5.789063 0.761719 -6.304688 1.167969 -6.65625 C 1.566406 -7.007813 2.109375 -7.183594 2.792969 -7.1875 C 3.476563 -7.183594 4.019531 -6.992188 4.421875 -6.617188 C 4.820313 -6.234375 5.019531 -5.761719 5.023438 -5.199219 C 5.019531 -4.910156 4.960938 -4.628906 4.847656 -4.355469 C 4.726563 -4.074219 4.535156 -3.785156 4.265625 -3.480469 C 3.992188 -3.175781 3.539063 -2.753906 2.910156 -2.222656 C 2.378906 -1.777344 2.039063 -1.476563 1.894531 -1.320313 C 1.742188 -1.160156 1.621094 -1.003906 1.523438 -0.84375 Z "/>
</symbol>
<symbol overflow="visible" id="glyph0-4">
<path style="stroke:none;" d="M 3.234375 0 L 3.234375 -1.714844 L 0.125 -1.714844 L 0.125 -2.519531 L 3.394531 -7.15625 L 4.109375 -7.15625 L 4.109375 -2.519531 L 5.078125 -2.519531 L 5.078125 -1.714844 L 4.109375 -1.714844 L 4.109375 0 Z M 3.234375 -2.519531 L 3.234375 -5.746094 L 0.992188 -2.519531 Z "/>
</symbol>
<symbol overflow="visible" id="glyph0-5">
<path style="stroke:none;" d="M 4.976563 -5.40625 L 4.101563 -5.335938 C 4.023438 -5.679688 3.910156 -5.929688 3.769531 -6.089844 C 3.527344 -6.335938 3.234375 -6.460938 2.890625 -6.464844 C 2.605469 -6.460938 2.359375 -6.382813 2.152344 -6.230469 C 1.871094 -6.027344 1.652344 -5.734375 1.496094 -5.347656 C 1.332031 -4.957031 1.25 -4.40625 1.25 -3.691406 C 1.457031 -4.011719 1.714844 -4.25 2.023438 -4.410156 C 2.328125 -4.5625 2.652344 -4.640625 2.988281 -4.644531 C 3.574219 -4.640625 4.070313 -4.425781 4.484375 -3.996094 C 4.890625 -3.566406 5.097656 -3.007813 5.101563 -2.324219 C 5.097656 -1.871094 5 -1.453125 4.8125 -1.070313 C 4.617188 -0.683594 4.351563 -0.386719 4.015625 -0.183594 C 3.671875 0.0195313 3.289063 0.117188 2.859375 0.121094 C 2.125 0.117188 1.527344 -0.148438 1.066406 -0.683594 C 0.605469 -1.21875 0.375 -2.109375 0.375 -3.351563 C 0.375 -4.734375 0.628906 -5.738281 1.140625 -6.367188 C 1.585938 -6.910156 2.1875 -7.183594 2.945313 -7.1875 C 3.503906 -7.183594 3.964844 -7.027344 4.328125 -6.714844 C 4.683594 -6.398438 4.898438 -5.960938 4.976563 -5.40625 Z M 1.386719 -2.320313 C 1.382813 -2.015625 1.445313 -1.722656 1.578125 -1.449219 C 1.703125 -1.167969 1.882813 -0.957031 2.117188 -0.816406 C 2.34375 -0.667969 2.589844 -0.597656 2.847656 -0.601563 C 3.214844 -0.597656 3.53125 -0.746094 3.800781 -1.050781 C 4.066406 -1.347656 4.199219 -1.753906 4.203125 -2.269531 C 4.199219 -2.761719 4.070313 -3.152344 3.808594 -3.4375 C 3.542969 -3.722656 3.210938 -3.867188 2.8125 -3.867188 C 2.414063 -3.867188 2.074219 -3.722656 1.800781 -3.4375 C 1.519531 -3.152344 1.382813 -2.78125 1.386719 -2.320313 Z "/>
</symbol>
<symbol overflow="visible" id="glyph0-6">
<path style="stroke:none;" d="M 1.765625 -3.882813 C 1.398438 -4.011719 1.128906 -4.203125 0.957031 -4.453125 C 0.777344 -4.699219 0.691406 -4.996094 0.695313 -5.34375 C 0.691406 -5.863281 0.878906 -6.300781 1.253906 -6.65625 C 1.628906 -7.007813 2.125 -7.183594 2.75 -7.1875 C 3.371094 -7.183594 3.875 -7 4.257813 -6.640625 C 4.636719 -6.273438 4.828125 -5.832031 4.828125 -5.316406 C 4.828125 -4.980469 4.738281 -4.691406 4.566406 -4.449219 C 4.386719 -4.199219 4.125 -4.011719 3.773438 -3.882813 C 4.210938 -3.738281 4.542969 -3.507813 4.777344 -3.1875 C 5.003906 -2.867188 5.121094 -2.484375 5.121094 -2.046875 C 5.121094 -1.429688 4.902344 -0.917969 4.472656 -0.503906 C 4.035156 -0.0898438 3.46875 0.117188 2.765625 0.121094 C 2.054688 0.117188 1.484375 -0.0898438 1.054688 -0.503906 C 0.621094 -0.921875 0.402344 -1.441406 0.40625 -2.070313 C 0.402344 -2.53125 0.519531 -2.921875 0.757813 -3.238281 C 0.992188 -3.550781 1.328125 -3.765625 1.765625 -3.882813 Z M 1.59375 -5.371094 C 1.59375 -5.03125 1.699219 -4.753906 1.917969 -4.539063 C 2.132813 -4.324219 2.417969 -4.21875 2.769531 -4.21875 C 3.105469 -4.21875 3.382813 -4.324219 3.601563 -4.539063 C 3.816406 -4.75 3.925781 -5.011719 3.925781 -5.320313 C 3.925781 -5.640625 3.8125 -5.910156 3.589844 -6.132813 C 3.367188 -6.351563 3.089844 -6.460938 2.757813 -6.464844 C 2.421875 -6.460938 2.144531 -6.355469 1.925781 -6.140625 C 1.703125 -5.925781 1.59375 -5.667969 1.59375 -5.371094 Z M 1.308594 -2.066406 C 1.304688 -1.8125 1.363281 -1.570313 1.484375 -1.335938 C 1.601563 -1.101563 1.78125 -0.917969 2.015625 -0.792969 C 2.25 -0.660156 2.5 -0.597656 2.773438 -0.601563 C 3.1875 -0.597656 3.535156 -0.730469 3.8125 -1.003906 C 4.082031 -1.269531 4.21875 -1.613281 4.222656 -2.035156 C 4.21875 -2.457031 4.078125 -2.808594 3.800781 -3.085938 C 3.515625 -3.359375 3.164063 -3.496094 2.742188 -3.5 C 2.328125 -3.496094 1.984375 -3.359375 1.714844 -3.089844 C 1.441406 -2.8125 1.304688 -2.472656 1.308594 -2.066406 Z "/>
</symbol>
<symbol overflow="visible" id="glyph0-7">
<path style="stroke:none;" d="M 3.726563 0 L 2.847656 0 L 2.847656 -5.601563 C 2.636719 -5.398438 2.359375 -5.195313 2.015625 -4.992188 C 1.671875 -4.789063 1.363281 -4.636719 1.089844 -4.539063 L 1.089844 -5.390625 C 1.582031 -5.621094 2.011719 -5.898438 2.378906 -6.230469 C 2.746094 -6.554688 3.003906 -6.875 3.160156 -7.1875 L 3.726563 -7.1875 Z "/>
</symbol>
</g>
<clipPath id="clip1">
  <path d="M 10 3 L 125 3 L 125 213 L 10 213 Z "/>
</clipPath>
<clipPath id="clip2">
  <path d="M 10 3 L 359 3 L 359 213 L 10 213 Z "/>
</clipPath>
</defs>
<g id="surface7">
<g clip-path="url(#clip1)" clip-rule="nonzero">
<path style="fill:none;stroke-width:1.6;stroke-linecap:square;stroke-linejoin:miter;stroke:rgb(36.84082%,50.67749%,70.979309%);stroke-opacity:1;stroke-miterlimit:3.25;" d="M 83 16.269531 L 83.101563 16.464844 L 83.207031 16.664063 L 83.410156 17.0625 L 83.820313 17.855469 L 84.640625 19.4375 L 86.28125 22.609375 L 89.566406 28.949219 L 96.683594 42.699219 L 103.332031 55.535156 L 109.847656 68.121094 L 116.917969 81.773438 L 123.515625 94.515625 L 130.664063 108.324219 L 137.683594 121.882813 L 144.230469 134.527344 L 151.332031 148.238281 L 157.957031 161.039063 L 164.457031 173.589844 L 171.503906 187.203125 L 171.609375 187.402344 L 171.710938 187.601563 L 171.917969 188 L 173.148438 190.378906 L 174.792969 193.558594 L 174.898438 193.753906 L 175 193.953125 L 175.207031 194.351563 L 175.617188 195.144531 L 176.4375 196.734375 L 178.082031 199.910156 L 178.308594 200.339844 L 178.976563 201.628906 L 179.867188 203.351563 L 179.976563 203.566406 L 180.089844 203.78125 L 180.3125 204.210938 L 180.757813 205.074219 L 181.648438 206.792969 L 181.761719 207.011719 L 181.871094 207.226563 L 182.539063 208.515625 L 182.652344 208.730469 L 182.761719 208.945313 L 182.875 209.160156 L 182.984375 209.378906 L 183.097656 209.59375 L 183.207031 209.808594 L 183.253906 209.890625 " transform="matrix(1,0,0,1,-66,-5)"/>
</g>
<path style="fill:none;stroke-width:1.6;stroke-linecap:square;stroke-linejoin:miter;stroke:rgb(36.84082%,50.67749%,70.979309%);stroke-opacity:1;stroke-miterlimit:3.25;" d="M 183.464844 209.996094 L 183.542969 209.921875 L 183.65625 209.8125 L 184.324219 209.167969 L 185.214844 208.304688 L 186.964844 206.617188 L 188.714844 204.925781 L 192.214844 201.546875 L 198.742188 195.242188 L 205.824219 188.40625 L 212.433594 182.023438 L 219.59375 175.105469 L 226.625 168.316406 L 233.183594 161.984375 L 240.296875 155.117188 L 246.933594 148.703125 L 253.445313 142.417969 L 260.503906 135.597656 L 267.09375 129.234375 L 274.238281 122.339844 L 274.347656 122.230469 L 275.113281 121.492188 L 275.992188 120.644531 L 277.742188 118.953125 L 277.960938 118.742188 L 278.183594 118.53125 L 278.621094 118.105469 L 279.496094 117.261719 L 281.25 115.566406 L 281.453125 115.371094 L 281.660156 115.171875 L 282.066406 114.777344 L 282.269531 114.582031 L 282.476563 114.382813 L 282.882813 113.988281 L 282.988281 113.890625 L 283.089844 113.789063 L 283.394531 113.496094 L 283.496094 113.394531 L 283.601563 113.296875 L 283.613281 113.285156 " transform="matrix(1,0,0,1,-66,-5)"/>
<path style="fill:none;stroke-width:1.6;stroke-linecap:square;stroke-linejoin:miter;stroke:rgb(36.84082%,50.67749%,70.979309%);stroke-opacity:1;stroke-miterlimit:3.25;" d="M 283.824219 113.285156 L 283.90625 113.363281 L 284.109375 113.5625 L 284.519531 113.957031 L 284.722656 114.152344 L 284.929688 114.351563 L 285.335938 114.746094 L 286.15625 115.535156 L 287.789063 117.113281 L 287.902344 117.222656 L 288.011719 117.328125 L 288.234375 117.542969 L 288.675781 117.96875 L 289.5625 118.828125 L 291.335938 120.539063 L 294.882813 123.964844 L 301.503906 130.355469 L 307.992188 136.625 L 315.035156 143.425781 L 321.605469 149.769531 L 328.730469 156.648438 L 328.832031 156.75 L 328.9375 156.851563 L 329.144531 157.050781 L 329.5625 157.453125 L 330.394531 158.253906 L 330.496094 158.355469 L 330.601563 158.457031 L 330.808594 158.65625 L 331.222656 159.058594 L 332.054688 159.859375 L 332.160156 159.960938 L 332.261719 160.0625 L 332.472656 160.261719 L 332.886719 160.664063 L 332.992188 160.765625 L 333.09375 160.863281 L 333.300781 161.066406 L 333.40625 161.164063 L 333.511719 161.265625 L 333.71875 161.46875 L 333.824219 161.566406 " transform="matrix(1,0,0,1,-66,-5)"/>
<path style="fill:none;stroke-width:1.6;stroke-linecap:square;stroke-linejoin:miter;stroke:rgb(36.84082%,50.67749%,70.979309%);stroke-opacity:1;stroke-miterlimit:3.25;" d="M 334.03125 161.71875 L 334.132813 161.777344 L 334.238281 161.835938 L 334.34375 161.898438 L 334.550781 162.019531 L 335.382813 162.5 L 335.789063 162.734375 L 336.195313 162.972656 L 337.011719 163.445313 L 338.640625 164.390625 L 341.902344 166.277344 L 348.976563 170.375 L 355.578125 174.203125 L 362.730469 178.347656 L 369.753906 182.417969 L 376.308594 186.210938 L 383.410156 190.328125 L 390.042969 194.171875 L 396.546875 197.9375 L 403.601563 202.027344 L 410.183594 205.839844 L 410.410156 205.972656 L 411.101563 206.371094 L 412.019531 206.90625 L 413.855469 207.96875 L 413.972656 208.035156 L 414.085938 208.101563 L 414.316406 208.234375 L 414.773438 208.5 L 415.695313 209.035156 L 415.921875 209.167969 L 416.613281 209.566406 L 416.839844 209.699219 L 417.070313 209.832031 L 417.1875 209.898438 L 417.414063 210.03125 L 417.53125 210.097656 " transform="matrix(1,0,0,1,-66,-5)"/>
<g clip-path="url(#clip2)" clip-rule="nonzero">
<path style="fill:none;stroke-width:1.6;stroke-linecap:square;stroke-linejoin:miter;stroke:rgb(88.070679%,61.103821%,14.204407%);stroke-opacity:1;stroke-miterlimit:3.25;" d="M 83 16.269531 L 83.207031 16.269531 L 83.410156 16.277344 L 83.511719 16.285156 L 83.617188 16.289063 L 83.921875 16.3125 L 84.027344 16.324219 L 84.128906 16.332031 L 84.332031 16.355469 L 84.4375 16.367188 L 84.640625 16.398438 L 84.746094 16.410156 L 84.847656 16.425781 L 85.050781 16.460938 L 85.15625 16.476563 L 85.460938 16.535156 L 85.566406 16.554688 L 85.667969 16.574219 L 85.871094 16.617188 L 86.28125 16.710938 L 86.386719 16.738281 L 86.488281 16.761719 L 86.695313 16.816406 L 87.105469 16.929688 L 87.925781 17.175781 L 88.128906 17.246094 L 88.335938 17.3125 L 88.746094 17.457031 L 89.566406 17.769531 L 89.675781 17.8125 L 89.789063 17.859375 L 90.011719 17.949219 L 90.457031 18.140625 L 91.347656 18.539063 L 93.125 19.429688 L 93.238281 19.488281 L 93.347656 19.546875 L 93.570313 19.667969 L 94.015625 19.914063 L 94.90625 20.425781 L 96.683594 21.515625 L 96.894531 21.648438 L 97.515625 22.058594 L 98.347656 22.617188 L 100.007813 23.789063 L 103.332031 26.328125 L 109.847656 31.921875 L 116.917969 38.691406 L 123.515625 45.433594 L 130.664063 52.984375 L 137.683594 60.421875 L 144.230469 67.183594 L 151.332031 74.09375 L 157.957031 79.902344 L 158.058594 79.984375 L 158.160156 80.070313 L 158.363281 80.234375 L 158.769531 80.558594 L 159.582031 81.203125 L 161.207031 82.441406 L 161.308594 82.515625 L 161.410156 82.59375 L 162.019531 83.039063 L 162.832031 83.617188 L 164.457031 84.722656 L 164.566406 84.796875 L 164.675781 84.867188 L 164.894531 85.011719 L 165.335938 85.292969 L 166.21875 85.839844 L 166.328125 85.90625 L 166.4375 85.96875 L 166.660156 86.101563 L 167.097656 86.359375 L 167.980469 86.855469 L 168.199219 86.972656 L 168.421875 87.089844 L 168.863281 87.320313 L 169.742188 87.761719 L 169.851563 87.8125 L 169.964844 87.867188 L 170.183594 87.96875 L 170.625 88.167969 L 171.503906 88.546875 L 171.609375 88.589844 L 171.710938 88.628906 L 171.917969 88.710938 L 172.328125 88.867188 L 172.429688 88.90625 L 172.535156 88.945313 L 172.738281 89.019531 L 173.148438 89.160156 L 173.253906 89.195313 L 173.355469 89.226563 L 173.5625 89.292969 L 173.972656 89.417969 L 174.074219 89.449219 L 174.179688 89.476563 L 174.382813 89.535156 L 174.792969 89.640625 L 174.898438 89.667969 L 175 89.691406 L 175.207031 89.738281 L 175.410156 89.785156 L 175.617188 89.828125 L 175.71875 89.847656 L 175.824219 89.867188 L 176.027344 89.90625 L 176.4375 89.976563 L 176.542969 89.988281 L 176.644531 90.003906 L 176.851563 90.03125 L 176.953125 90.042969 L 177.054688 90.058594 L 177.261719 90.078125 L 177.363281 90.089844 L 177.46875 90.097656 L 177.671875 90.113281 L 177.777344 90.121094 L 177.878906 90.125 L 177.980469 90.132813 L 178.082031 90.136719 L 178.308594 90.144531 L 178.863281 90.144531 L 178.976563 90.140625 L 179.085938 90.136719 L 179.199219 90.132813 L 179.308594 90.125 L 179.421875 90.117188 L 179.53125 90.109375 L 179.644531 90.101563 L 179.753906 90.089844 L 179.867188 90.078125 L 179.976563 90.066406 L 180.089844 90.050781 L 180.199219 90.035156 L 180.3125 90.019531 L 180.421875 90 L 180.535156 89.984375 L 180.757813 89.941406 L 180.871094 89.917969 L 180.980469 89.890625 L 181.203125 89.839844 L 181.316406 89.808594 L 181.425781 89.777344 L 181.648438 89.710938 L 181.761719 89.675781 L 181.871094 89.636719 L 182.09375 89.554688 L 182.207031 89.511719 L 182.316406 89.464844 L 182.539063 89.367188 L 182.652344 89.3125 L 182.761719 89.257813 L 182.875 89.195313 L 182.984375 89.132813 L 183.097656 89.066406 L 183.207031 88.996094 L 183.320313 88.917969 L 183.433594 88.828125 L 183.542969 88.738281 L 183.65625 88.648438 L 183.878906 88.464844 L 185.214844 87.375 L 185.324219 87.285156 L 185.433594 87.199219 L 185.652344 87.019531 L 186.089844 86.667969 L 186.964844 85.960938 L 188.714844 84.558594 L 192.214844 81.792969 L 198.742188 76.796875 L 205.824219 71.675781 L 212.433594 67.234375 L 219.59375 62.863281 L 226.625 59.09375 L 226.828125 58.992188 L 227.035156 58.894531 L 227.445313 58.691406 L 228.265625 58.300781 L 229.902344 57.539063 L 230.007813 57.492188 L 230.109375 57.449219 L 230.3125 57.355469 L 230.722656 57.171875 L 231.542969 56.816406 L 233.183594 56.128906 L 233.292969 56.082031 L 233.40625 56.039063 L 233.628906 55.949219 L 234.074219 55.773438 L 234.960938 55.425781 L 236.738281 54.773438 L 236.851563 54.734375 L 236.960938 54.695313 L 237.183594 54.617188 L 237.628906 54.464844 L 238.515625 54.167969 L 240.296875 53.613281 L 240.398438 53.582031 L 240.503906 53.554688 L 240.710938 53.492188 L 241.125 53.375 L 241.953125 53.144531 L 242.164063 53.089844 L 242.371094 53.035156 L 242.785156 52.929688 L 243.613281 52.722656 L 243.824219 52.675781 L 244.03125 52.625 L 244.445313 52.53125 L 245.273438 52.351563 L 245.378906 52.332031 L 245.480469 52.308594 L 245.691406 52.269531 L 246.105469 52.1875 L 246.933594 52.035156 L 247.035156 52.015625 L 247.136719 52 L 247.339844 51.964844 L 247.75 51.898438 L 248.664063 51.757813 L 248.765625 51.746094 L 249.375 51.664063 L 250.1875 51.570313 L 250.292969 51.558594 L 250.394531 51.546875 L 251.003906 51.488281 L 251.105469 51.476563 L 251.410156 51.453125 L 251.816406 51.417969 L 251.917969 51.414063 L 252.222656 51.390625 L 252.324219 51.386719 L 252.425781 51.378906 L 252.628906 51.367188 L 252.730469 51.363281 L 252.832031 51.355469 L 253.039063 51.347656 L 253.140625 51.34375 L 253.242188 51.335938 L 253.445313 51.328125 L 253.554688 51.324219 L 253.664063 51.324219 L 253.773438 51.320313 L 253.886719 51.316406 L 253.996094 51.3125 L 254.105469 51.3125 L 254.214844 51.308594 L 254.328125 51.308594 L 254.4375 51.304688 L 254.65625 51.304688 L 254.769531 51.300781 L 255.210938 51.300781 L 255.320313 51.304688 L 255.539063 51.304688 L 255.652344 51.308594 L 255.761719 51.308594 L 255.871094 51.3125 L 255.980469 51.3125 L 256.09375 51.316406 L 256.421875 51.328125 L 256.535156 51.332031 L 256.753906 51.339844 L 256.976563 51.351563 L 257.085938 51.355469 L 257.195313 51.363281 L 257.417969 51.375 L 257.636719 51.390625 L 257.859375 51.40625 L 258.078125 51.421875 L 258.300781 51.441406 L 258.738281 51.480469 L 258.851563 51.492188 L 258.960938 51.5 L 259.179688 51.523438 L 259.621094 51.574219 L 259.734375 51.589844 L 259.84375 51.601563 L 260.0625 51.632813 L 260.503906 51.691406 L 260.609375 51.707031 L 260.710938 51.722656 L 260.917969 51.753906 L 261.328125 51.824219 L 261.433594 51.839844 L 261.535156 51.859375 L 261.742188 51.894531 L 262.152344 51.972656 L 262.257813 51.992188 L 262.359375 52.011719 L 262.566406 52.054688 L 262.976563 52.144531 L 263.800781 52.335938 L 263.902344 52.359375 L 264.007813 52.386719 L 264.210938 52.4375 L 264.625 52.546875 L 265.449219 52.78125 L 265.652344 52.84375 L 266.273438 53.042969 L 267.09375 53.324219 L 267.320313 53.402344 L 267.542969 53.488281 L 267.988281 53.65625 L 268.882813 54.019531 L 268.992188 54.066406 L 269.105469 54.117188 L 269.328125 54.214844 L 269.773438 54.414063 L 270.667969 54.84375 L 270.777344 54.898438 L 270.890625 54.953125 L 271.558594 55.304688 L 272.453125 55.800781 L 274.238281 56.90625 L 274.675781 57.203125 L 275.113281 57.507813 L 275.992188 58.152344 L 276.210938 58.324219 L 276.429688 58.492188 L 276.867188 58.84375 L 277.742188 59.582031 L 277.851563 59.679688 L 277.960938 59.773438 L 278.183594 59.972656 L 278.621094 60.375 L 279.496094 61.222656 L 281.25 63.117188 L 281.453125 63.359375 L 281.660156 63.605469 L 282.066406 64.113281 L 282.167969 64.242188 L 282.269531 64.375 L 282.476563 64.644531 L 282.882813 65.203125 L 282.988281 65.347656 L 283.089844 65.492188 L 283.292969 65.792969 L 283.703125 66.4375 L 284.519531 67.855469 L 284.722656 68.207031 L 284.929688 68.5625 L 285.335938 69.269531 L 286.15625 70.679688 L 287.789063 73.496094 L 294.882813 85.535156 L 301.503906 96.5 L 307.992188 106.933594 L 315.035156 117.828125 L 321.605469 127.507813 L 328.730469 137.304688 L 335.382813 145.351563 L 341.902344 152.4375 L 348.976563 159.894531 L 355.578125 166.621094 L 362.730469 173.621094 L 369.753906 180.15625 L 376.308594 185.917969 L 383.410156 191.742188 L 390.042969 196.726563 L 396.546875 201.113281 L 396.765625 201.253906 L 396.984375 201.390625 L 397.425781 201.667969 L 398.308594 202.207031 L 400.074219 203.253906 L 400.183594 203.320313 L 400.511719 203.507813 L 400.953125 203.761719 L 401.835938 204.253906 L 403.601563 205.203125 L 403.703125 205.253906 L 403.804688 205.308594 L 404.011719 205.414063 L 404.421875 205.625 L 405.246094 206.035156 L 406.890625 206.816406 L 406.992188 206.863281 L 407.097656 206.910156 L 407.300781 207.003906 L 407.714844 207.1875 L 408.535156 207.542969 L 410.183594 208.207031 L 410.296875 208.253906 L 410.410156 208.296875 L 410.640625 208.382813 L 411.101563 208.550781 L 412.019531 208.867188 L 412.132813 208.90625 L 412.25 208.945313 L 412.480469 209.019531 L 412.9375 209.160156 L 413.855469 209.425781 L 413.972656 209.457031 L 414.085938 209.488281 L 414.316406 209.546875 L 414.773438 209.660156 L 414.890625 209.6875 L 415.003906 209.714844 L 415.234375 209.765625 L 415.695313 209.859375 L 415.808594 209.882813 L 415.921875 209.902344 L 416.152344 209.941406 L 416.269531 209.960938 L 416.382813 209.980469 L 416.613281 210.011719 L 416.839844 210.042969 L 416.957031 210.054688 L 417.070313 210.066406 L 417.1875 210.078125 L 417.414063 210.09375 L 417.53125 210.097656 " transform="matrix(1,0,0,1,-66,-5)"/>
</g>
<path style="fill:none;stroke-width:0.2;stroke-linecap:butt;stroke-linejoin:miter;stroke:rgb(39.99939%,39.99939%,39.99939%);stroke-opacity:1;stroke-miterlimit:3.25;" d="M 83 210.097656 L 83 206.085938 " transform="matrix(1,0,0,1,-66,-5)"/>
<path style="fill:none;stroke-width:0.2;stroke-linecap:butt;stroke-linejoin:miter;stroke:rgb(39.99939%,39.99939%,39.99939%);stroke-opacity:1;stroke-miterlimit:3.25;" d="M 99.726563 210.097656 L 99.726563 207.691406 " transform="matrix(1,0,0,1,-66,-5)"/>
<path style="fill:none;stroke-width:0.2;stroke-linecap:butt;stroke-linejoin:miter;stroke:rgb(39.99939%,39.99939%,39.99939%);stroke-opacity:1;stroke-miterlimit:3.25;" d="M 116.453125 210.097656 L 116.453125 207.691406 " transform="matrix(1,0,0,1,-66,-5)"/>
<path style="fill:none;stroke-width:0.2;stroke-linecap:butt;stroke-linejoin:miter;stroke:rgb(39.99939%,39.99939%,39.99939%);stroke-opacity:1;stroke-miterlimit:3.25;" d="M 133.179688 210.097656 L 133.179688 207.691406 " transform="matrix(1,0,0,1,-66,-5)"/>
<path style="fill:none;stroke-width:0.2;stroke-linecap:butt;stroke-linejoin:miter;stroke:rgb(39.99939%,39.99939%,39.99939%);stroke-opacity:1;stroke-miterlimit:3.25;" d="M 149.90625 210.097656 L 149.90625 206.085938 " transform="matrix(1,0,0,1,-66,-5)"/>
<g style="fill:rgb(39.99939%,39.99939%,39.99939%);fill-opacity:1;">
  <use xlink:href="#glyph0-1" x="76.906122" y="218.097629"/>
  <use xlink:href="#glyph0-2" x="82.467646" y="218.097629"/>
  <use xlink:href="#glyph0-3" x="85.245966" y="218.097629"/>
</g>
<path style="fill:none;stroke-width:0.2;stroke-linecap:butt;stroke-linejoin:miter;stroke:rgb(39.99939%,39.99939%,39.99939%);stroke-opacity:1;stroke-miterlimit:3.25;" d="M 166.632813 210.097656 L 166.632813 207.691406 " transform="matrix(1,0,0,1,-66,-5)"/>
<path style="fill:none;stroke-width:0.2;stroke-linecap:butt;stroke-linejoin:miter;stroke:rgb(39.99939%,39.99939%,39.99939%);stroke-opacity:1;stroke-miterlimit:3.25;" d="M 183.359375 210.097656 L 183.359375 207.691406 " transform="matrix(1,0,0,1,-66,-5)"/>
<path style="fill:none;stroke-width:0.2;stroke-linecap:butt;stroke-linejoin:miter;stroke:rgb(39.99939%,39.99939%,39.99939%);stroke-opacity:1;stroke-miterlimit:3.25;" d="M 200.085938 210.097656 L 200.085938 207.691406 " transform="matrix(1,0,0,1,-66,-5)"/>
<path style="fill:none;stroke-width:0.2;stroke-linecap:butt;stroke-linejoin:miter;stroke:rgb(39.99939%,39.99939%,39.99939%);stroke-opacity:1;stroke-miterlimit:3.25;" d="M 216.8125 210.097656 L 216.8125 206.085938 " transform="matrix(1,0,0,1,-66,-5)"/>
<g style="fill:rgb(39.99939%,39.99939%,39.99939%);fill-opacity:1;">
  <use xlink:href="#glyph0-1" x="143.812245" y="218.097629"/>
  <use xlink:href="#glyph0-2" x="149.373768" y="218.097629"/>
  <use xlink:href="#glyph0-4" x="152.152089" y="218.097629"/>
</g>
<path style="fill:none;stroke-width:0.2;stroke-linecap:butt;stroke-linejoin:miter;stroke:rgb(39.99939%,39.99939%,39.99939%);stroke-opacity:1;stroke-miterlimit:3.25;" d="M 233.539063 210.097656 L 233.539063 207.691406 " transform="matrix(1,0,0,1,-66,-5)"/>
<path style="fill:none;stroke-width:0.2;stroke-linecap:butt;stroke-linejoin:miter;stroke:rgb(39.99939%,39.99939%,39.99939%);stroke-opacity:1;stroke-miterlimit:3.25;" d="M 250.265625 210.097656 L 250.265625 207.691406 " transform="matrix(1,0,0,1,-66,-5)"/>
<path style="fill:none;stroke-width:0.2;stroke-linecap:butt;stroke-linejoin:miter;stroke:rgb(39.99939%,39.99939%,39.99939%);stroke-opacity:1;stroke-miterlimit:3.25;" d="M 266.992188 210.097656 L 266.992188 207.691406 " transform="matrix(1,0,0,1,-66,-5)"/>
<path style="fill:none;stroke-width:0.2;stroke-linecap:butt;stroke-linejoin:miter;stroke:rgb(39.99939%,39.99939%,39.99939%);stroke-opacity:1;stroke-miterlimit:3.25;" d="M 283.71875 210.097656 L 283.71875 206.085938 " transform="matrix(1,0,0,1,-66,-5)"/>
<g style="fill:rgb(39.99939%,39.99939%,39.99939%);fill-opacity:1;">
  <use xlink:href="#glyph0-1" x="210.718367" y="218.097629"/>
  <use xlink:href="#glyph0-2" x="216.279891" y="218.097629"/>
  <use xlink:href="#glyph0-5" x="219.058211" y="218.097629"/>
</g>
<path style="fill:none;stroke-width:0.2;stroke-linecap:butt;stroke-linejoin:miter;stroke:rgb(39.99939%,39.99939%,39.99939%);stroke-opacity:1;stroke-miterlimit:3.25;" d="M 300.445313 210.097656 L 300.445313 207.691406 " transform="matrix(1,0,0,1,-66,-5)"/>
<path style="fill:none;stroke-width:0.2;stroke-linecap:butt;stroke-linejoin:miter;stroke:rgb(39.99939%,39.99939%,39.99939%);stroke-opacity:1;stroke-miterlimit:3.25;" d="M 317.171875 210.097656 L 317.171875 207.691406 " transform="matrix(1,0,0,1,-66,-5)"/>
<path style="fill:none;stroke-width:0.2;stroke-linecap:butt;stroke-linejoin:miter;stroke:rgb(39.99939%,39.99939%,39.99939%);stroke-opacity:1;stroke-miterlimit:3.25;" d="M 333.898438 210.097656 L 333.898438 207.691406 " transform="matrix(1,0,0,1,-66,-5)"/>
<path style="fill:none;stroke-width:0.2;stroke-linecap:butt;stroke-linejoin:miter;stroke:rgb(39.99939%,39.99939%,39.99939%);stroke-opacity:1;stroke-miterlimit:3.25;" d="M 350.625 210.097656 L 350.625 206.085938 " transform="matrix(1,0,0,1,-66,-5)"/>
<g style="fill:rgb(39.99939%,39.99939%,39.99939%);fill-opacity:1;">
  <use xlink:href="#glyph0-1" x="277.62449" y="218.097629"/>
  <use xlink:href="#glyph0-2" x="283.186013" y="218.097629"/>
  <use xlink:href="#glyph0-6" x="285.964334" y="218.097629"/>
</g>
<path style="fill:none;stroke-width:0.2;stroke-linecap:butt;stroke-linejoin:miter;stroke:rgb(39.99939%,39.99939%,39.99939%);stroke-opacity:1;stroke-miterlimit:3.25;" d="M 367.351563 210.097656 L 367.351563 207.691406 " transform="matrix(1,0,0,1,-66,-5)"/>
<path style="fill:none;stroke-width:0.2;stroke-linecap:butt;stroke-linejoin:miter;stroke:rgb(39.99939%,39.99939%,39.99939%);stroke-opacity:1;stroke-miterlimit:3.25;" d="M 384.078125 210.097656 L 384.078125 207.691406 " transform="matrix(1,0,0,1,-66,-5)"/>
<path style="fill:none;stroke-width:0.2;stroke-linecap:butt;stroke-linejoin:miter;stroke:rgb(39.99939%,39.99939%,39.99939%);stroke-opacity:1;stroke-miterlimit:3.25;" d="M 400.804688 210.097656 L 400.804688 207.691406 " transform="matrix(1,0,0,1,-66,-5)"/>
<path style="fill:none;stroke-width:0.2;stroke-linecap:butt;stroke-linejoin:miter;stroke:rgb(39.99939%,39.99939%,39.99939%);stroke-opacity:1;stroke-miterlimit:3.25;" d="M 417.53125 210.097656 L 417.53125 206.085938 " transform="matrix(1,0,0,1,-66,-5)"/>
<g style="fill:rgb(39.99939%,39.99939%,39.99939%);fill-opacity:1;">
  <use xlink:href="#glyph0-7" x="344.530612" y="218.097629"/>
  <use xlink:href="#glyph0-2" x="350.092136" y="218.097629"/>
  <use xlink:href="#glyph0-1" x="352.870456" y="218.097629"/>
</g>
<path style="fill:none;stroke-width:0.2;stroke-linecap:butt;stroke-linejoin:miter;stroke:rgb(39.99939%,39.99939%,39.99939%);stroke-opacity:1;stroke-miterlimit:3.25;" d="M 76.03125 210.097656 L 424.5 210.097656 " transform="matrix(1,0,0,1,-66,-5)"/>
<path style="fill:none;stroke-width:0.2;stroke-linecap:butt;stroke-linejoin:miter;stroke:rgb(39.99939%,39.99939%,39.99939%);stroke-opacity:1;stroke-miterlimit:3.25;" d="M 83 219.789063 L 85.40625 219.789063 " transform="matrix(1,0,0,1,-66,-5)"/>
<path style="fill:none;stroke-width:0.2;stroke-linecap:butt;stroke-linejoin:miter;stroke:rgb(39.99939%,39.99939%,39.99939%);stroke-opacity:1;stroke-miterlimit:3.25;" d="M 83 210.097656 L 87.011719 210.097656 " transform="matrix(1,0,0,1,-66,-5)"/>
<path style="fill:none;stroke-width:0.2;stroke-linecap:butt;stroke-linejoin:miter;stroke:rgb(39.99939%,39.99939%,39.99939%);stroke-opacity:1;stroke-miterlimit:3.25;" d="M 83 200.40625 L 85.40625 200.40625 " transform="matrix(1,0,0,1,-66,-5)"/>
<path style="fill:none;stroke-width:0.2;stroke-linecap:butt;stroke-linejoin:miter;stroke:rgb(39.99939%,39.99939%,39.99939%);stroke-opacity:1;stroke-miterlimit:3.25;" d="M 83 190.714844 L 85.40625 190.714844 " transform="matrix(1,0,0,1,-66,-5)"/>
<path style="fill:none;stroke-width:0.2;stroke-linecap:butt;stroke-linejoin:miter;stroke:rgb(39.99939%,39.99939%,39.99939%);stroke-opacity:1;stroke-miterlimit:3.25;" d="M 83 181.023438 L 85.40625 181.023438 " transform="matrix(1,0,0,1,-66,-5)"/>
<path style="fill:none;stroke-width:0.2;stroke-linecap:butt;stroke-linejoin:miter;stroke:rgb(39.99939%,39.99939%,39.99939%);stroke-opacity:1;stroke-miterlimit:3.25;" d="M 83 171.332031 L 87.011719 171.332031 " transform="matrix(1,0,0,1,-66,-5)"/>
<g style="fill:rgb(39.99939%,39.99939%,39.99939%);fill-opacity:1;">
  <use xlink:href="#glyph0-1" x="0" y="169.831763"/>
  <use xlink:href="#glyph0-2" x="5.561523" y="169.831763"/>
  <use xlink:href="#glyph0-3" x="8.339844" y="169.831763"/>
</g>
<path style="fill:none;stroke-width:0.2;stroke-linecap:butt;stroke-linejoin:miter;stroke:rgb(39.99939%,39.99939%,39.99939%);stroke-opacity:1;stroke-miterlimit:3.25;" d="M 83 161.640625 L 85.40625 161.640625 " transform="matrix(1,0,0,1,-66,-5)"/>
<path style="fill:none;stroke-width:0.2;stroke-linecap:butt;stroke-linejoin:miter;stroke:rgb(39.99939%,39.99939%,39.99939%);stroke-opacity:1;stroke-miterlimit:3.25;" d="M 83 151.949219 L 85.40625 151.949219 " transform="matrix(1,0,0,1,-66,-5)"/>
<path style="fill:none;stroke-width:0.2;stroke-linecap:butt;stroke-linejoin:miter;stroke:rgb(39.99939%,39.99939%,39.99939%);stroke-opacity:1;stroke-miterlimit:3.25;" d="M 83 142.257813 L 85.40625 142.257813 " transform="matrix(1,0,0,1,-66,-5)"/>
<path style="fill:none;stroke-width:0.2;stroke-linecap:butt;stroke-linejoin:miter;stroke:rgb(39.99939%,39.99939%,39.99939%);stroke-opacity:1;stroke-miterlimit:3.25;" d="M 83 132.566406 L 87.011719 132.566406 " transform="matrix(1,0,0,1,-66,-5)"/>
<g style="fill:rgb(39.99939%,39.99939%,39.99939%);fill-opacity:1;">
  <use xlink:href="#glyph0-1" x="0" y="131.065896"/>
  <use xlink:href="#glyph0-2" x="5.561523" y="131.065896"/>
  <use xlink:href="#glyph0-4" x="8.339844" y="131.065896"/>
</g>
<path style="fill:none;stroke-width:0.2;stroke-linecap:butt;stroke-linejoin:miter;stroke:rgb(39.99939%,39.99939%,39.99939%);stroke-opacity:1;stroke-miterlimit:3.25;" d="M 83 122.875 L 85.40625 122.875 " transform="matrix(1,0,0,1,-66,-5)"/>
<path style="fill:none;stroke-width:0.2;stroke-linecap:butt;stroke-linejoin:miter;stroke:rgb(39.99939%,39.99939%,39.99939%);stroke-opacity:1;stroke-miterlimit:3.25;" d="M 83 113.183594 L 85.40625 113.183594 " transform="matrix(1,0,0,1,-66,-5)"/>
<path style="fill:none;stroke-width:0.2;stroke-linecap:butt;stroke-linejoin:miter;stroke:rgb(39.99939%,39.99939%,39.99939%);stroke-opacity:1;stroke-miterlimit:3.25;" d="M 83 103.492188 L 85.40625 103.492188 " transform="matrix(1,0,0,1,-66,-5)"/>
<path style="fill:none;stroke-width:0.2;stroke-linecap:butt;stroke-linejoin:miter;stroke:rgb(39.99939%,39.99939%,39.99939%);stroke-opacity:1;stroke-miterlimit:3.25;" d="M 83 93.800781 L 87.011719 93.800781 " transform="matrix(1,0,0,1,-66,-5)"/>
<g style="fill:rgb(39.99939%,39.99939%,39.99939%);fill-opacity:1;">
  <use xlink:href="#glyph0-1" x="0" y="92.30003"/>
  <use xlink:href="#glyph0-2" x="5.561523" y="92.30003"/>
  <use xlink:href="#glyph0-5" x="8.339844" y="92.30003"/>
</g>
<path style="fill:none;stroke-width:0.2;stroke-linecap:butt;stroke-linejoin:miter;stroke:rgb(39.99939%,39.99939%,39.99939%);stroke-opacity:1;stroke-miterlimit:3.25;" d="M 83 84.109375 L 85.40625 84.109375 " transform="matrix(1,0,0,1,-66,-5)"/>
<path style="fill:none;stroke-width:0.2;stroke-linecap:butt;stroke-linejoin:miter;stroke:rgb(39.99939%,39.99939%,39.99939%);stroke-opacity:1;stroke-miterlimit:3.25;" d="M 83 74.417969 L 85.40625 74.417969 " transform="matrix(1,0,0,1,-66,-5)"/>
<path style="fill:none;stroke-width:0.2;stroke-linecap:butt;stroke-linejoin:miter;stroke:rgb(39.99939%,39.99939%,39.99939%);stroke-opacity:1;stroke-miterlimit:3.25;" d="M 83 64.726563 L 85.40625 64.726563 " transform="matrix(1,0,0,1,-66,-5)"/>
<path style="fill:none;stroke-width:0.2;stroke-linecap:butt;stroke-linejoin:miter;stroke:rgb(39.99939%,39.99939%,39.99939%);stroke-opacity:1;stroke-miterlimit:3.25;" d="M 83 55.035156 L 87.011719 55.035156 " transform="matrix(1,0,0,1,-66,-5)"/>
<g style="fill:rgb(39.99939%,39.99939%,39.99939%);fill-opacity:1;">
  <use xlink:href="#glyph0-1" x="0" y="53.534163"/>
  <use xlink:href="#glyph0-2" x="5.561523" y="53.534163"/>
  <use xlink:href="#glyph0-6" x="8.339844" y="53.534163"/>
</g>
<path style="fill:none;stroke-width:0.2;stroke-linecap:butt;stroke-linejoin:miter;stroke:rgb(39.99939%,39.99939%,39.99939%);stroke-opacity:1;stroke-miterlimit:3.25;" d="M 83 45.34375 L 85.40625 45.34375 " transform="matrix(1,0,0,1,-66,-5)"/>
<path style="fill:none;stroke-width:0.2;stroke-linecap:butt;stroke-linejoin:miter;stroke:rgb(39.99939%,39.99939%,39.99939%);stroke-opacity:1;stroke-miterlimit:3.25;" d="M 83 35.652344 L 85.40625 35.652344 " transform="matrix(1,0,0,1,-66,-5)"/>
<path style="fill:none;stroke-width:0.2;stroke-linecap:butt;stroke-linejoin:miter;stroke:rgb(39.99939%,39.99939%,39.99939%);stroke-opacity:1;stroke-miterlimit:3.25;" d="M 83 25.960938 L 85.40625 25.960938 " transform="matrix(1,0,0,1,-66,-5)"/>
<path style="fill:none;stroke-width:0.2;stroke-linecap:butt;stroke-linejoin:miter;stroke:rgb(39.99939%,39.99939%,39.99939%);stroke-opacity:1;stroke-miterlimit:3.25;" d="M 83 16.269531 L 87.011719 16.269531 " transform="matrix(1,0,0,1,-66,-5)"/>
<g style="fill:rgb(39.99939%,39.99939%,39.99939%);fill-opacity:1;">
  <use xlink:href="#glyph0-7" x="0" y="14.768296"/>
  <use xlink:href="#glyph0-2" x="5.561523" y="14.768296"/>
  <use xlink:href="#glyph0-1" x="8.339844" y="14.768296"/>
</g>
<path style="fill:none;stroke-width:0.2;stroke-linecap:butt;stroke-linejoin:miter;stroke:rgb(39.99939%,39.99939%,39.99939%);stroke-opacity:1;stroke-miterlimit:3.25;" d="M 83 6.578125 L 85.40625 6.578125 " transform="matrix(1,0,0,1,-66,-5)"/>
<path style="fill:none;stroke-width:0.2;stroke-linecap:butt;stroke-linejoin:miter;stroke:rgb(39.99939%,39.99939%,39.99939%);stroke-opacity:1;stroke-miterlimit:3.25;" d="M 83 220.867188 L 83 5.5 " transform="matrix(1,0,0,1,-66,-5)"/>
</g>
</svg>
